Part 1: Fundamentals of data import, structuring, and plotting in tidyverse • MultiPanelPlotsWithR
…
my_data <- read_csv("gapminder.csv", col_names = FALSE)
#> Rows: 1705 Columns: 6
#> ── Column specification ────────────────────────────────────────────────────────
#> Delimiter: ","
#> chr (6): X1, X2, X3, X4, X5, X6
#> 
#> ℹ Use `spec()` to retrieve the full column specification for this data.
#> ℹ Specify the column types or set `show_col_types = FALSE` to quiet this message.
# Setting `col_names` to false made the column headers 
# row one and added dummy column names
my_data
#> # A tibble: 1,705 × 6
#>    X1          X2        X3    X4      X5       X6         
#>    <chr>       <chr>     <chr> <chr>   <chr>    <chr>      
#>  1 country     continent year  lifeExp pop      gdpPercap  
#>  2 Afghanistan Asia      1952  28.801  8425333  779.4453145
#>  3 Afghanistan Asia      1957  30.332  9240934  820.8530296
#>  4 Afghanistan Asia      1962  31.997  10267083 853.10071  
#>  5 Afghanistan Asia      1967  34.02   11537966 836.1971382
#>  6 Afghanistan Asia      1972  36.088  13079460 739.9811058
#>  7 Afghanistan Asia      1977  38.438  14880372 786.11336  
#>  8 Afghanistan Asia      1982  39.854  12881816 978.0114388
#>  9 Afghanistan Asia      1987  40.822  13867957 852.3959448
#> 10 Afghanistan Asia      1992  41.674  16317921 649.3413952
#> # … with 1,695 more rows
# We're now going to import the gapminder dataset 
# using the preferred read_csv() function
my_data <- read_csv("gapminder.csv", col_names = TRUE)
#> Rows: 1704 Columns: 6
#> ── Column specification ────────────────────────────────────────────────────────
#> Delimiter: ","
#> chr (2): country, continent
#> dbl (4): year, lifeExp, pop, gdpPercap
#> 
#> ℹ Use `spec()` to retrieve the full column specification for this data.
#> ℹ Specify the column types or set `show_col_types = FALSE` to quiet this message.

# This looks correct. Note: TRUE is the default so it was not needed above
my_data
#> # A tibble: 1,704 × 6
#>    country     continent  year lifeExp      pop gdpPercap
#>    <chr>       <chr>     <dbl>   <dbl>    <dbl>     <dbl>
#>  1 Afghanistan Asia       1952    28.8  8425333      779.
#>  2 Afghanistan Asia       1957    30.3  9240934      821.
#>  3 Afghanistan Asia       1962    32.0 10267083      853.
#>  4 Afghanistan Asia       1967    34.0 11537966      836.
#>  5 Afghanistan Asia       1972    36.1 13079460      740.
#>  6 Afghanistan Asia       1977    38.4 14880372      786.
#>  7 Afghanistan Asia       1982    39.9 12881816      978.
#>  8 Afghanistan Asia       1987    40.8 13867957      852.
#>  9 Afghanistan Asia       1992    41.7 16317921      649.
#> 10 Afghanistan Asia       1997    41.8 22227415      635.
#> # … with 1,694 more rows
…
